{
    "foodClass": "Survey",
    "description": "Pineapple, raw",
    "foodNutrients": [
        {
            "type": "FoodNutrient",
            "id": 2648137,
            "nutrient": {
                "id": 1003,
                "number": "203",
                "name": "Protein",
                "rank": 600,
                "unitName": "g"
            },
            "amount": 0.54000000
        },
        {
            "type": "FoodNutrient",
            "id": 2648138,
            "nutrient": {
                "id": 1004,
                "number": "204",
                "name": "Total lipid (fat)",
                "rank": 800,
                "unitName": "g"
            },
            "amount": 0.12000000
        },
        {
            "type": "FoodNutrient",
            "id": 2648139,
            "nutrient": {
                "id": 1005,
                "number": "205",
                "name": "Carbohydrate, by difference",
                "rank": 1110,
                "unitName": "g"
            },
            "amount": 13.12000000
        },
        {
            "type": "FoodNutrient",
            "id": 2648140,
            "nutrient": {
                "id": 1008,
                "number": "208",
                "name": "Energy",
                "rank": 300,
                "unitName": "kcal"
            },
            "amount": 50.00000000
        },
        {
            "type": "FoodNutrient",
            "id": 2648141,
            "nutrient": {
                "id": 1018,
                "number": "221",
                "name": "Alcohol, ethyl",
                "rank": 18200,
                "unitName": "g"
            },
            "amount": 0E-8
        },
        {
            "type": "FoodNutrient",
            "id": 2648142,
            "nutrient": {
                "id": 1051,
                "number": "255",
                "name": "Water",
                "rank": 100,
                "unitName": "g"
            },
            "amount": 86.00000000
        },
        {
            "type": "FoodNutrient",
            "id": 2648143,
            "nutrient": {
                "id": 1057,
                "number": "262",
                "name": "Caffeine",
                "rank": 18300,
                "unitName": "mg"
            },
            "amount": 0E-8
        },
        {
            "type": "FoodNutrient",
            "id": 2648144,
            "nutrient": {
                "id": 1058,
                "number": "263",
                "name": "Theobromine",
                "rank": 18400,
                "unitName": "mg"
            },
            "amount": 0E-8
        },
        {
            "type": "FoodNutrient",
            "id": 2648145,
            "nutrient": {
                "id": 2000,
                "number": "269",
                "name": "Sugars, total including NLEA",
                "rank": 1510,
                "unitName": "g"
            },
            "amount": 9.85000000
        },
        {
            "type": "FoodNutrient",
            "id": 2648146,
            "nutrient": {
                "id": 1079,
                "number": "291",
                "name": "Fiber, total dietary",
                "rank": 1200,
                "unitName": "g"
            },
            "amount": 1.40000000
        },
        {
            "type": "FoodNutrient",
            "id": 2648147,
            "nutrient": {
                "id": 1087,
                "number": "301",
                "name": "Calcium, Ca",
                "rank": 5300,
                "unitName": "mg"
            },
            "amount": 13.00000000
        },
        {
            "type": "FoodNutrient",
            "id": 2648148,
            "nutrient": {
                "id": 1089,
                "number": "303",
                "name": "Iron, Fe",
                "rank": 5400,
                "unitName": "mg"
            },
            "amount": 0.29000000
        },
        {
            "type": "FoodNutrient",
            "id": 2648149,
            "nutrient": {
                "id": 1090,
                "number": "304",
                "name": "Magnesium, Mg",
                "rank": 5500,
                "unitName": "mg"
            },
            "amount": 12.00000000
        },
        {
            "type": "FoodNutrient",
            "id": 2648150,
            "nutrient": {
                "id": 1091,
                "number": "305",
                "name": "Phosphorus, P",
                "rank": 5600,
                "unitName": "mg"
            },
            "amount": 8.00000000
        },
        {
            "type": "FoodNutrient",
            "id": 2648151,
            "nutrient": {
                "id": 1092,
                "number": "306",
                "name": "Potassium, K",
                "rank": 5700,
                "unitName": "mg"
            },
            "amount": 109.00000000
        },
        {
            "type": "FoodNutrient",
            "id": 2648152,
            "nutrient": {
                "id": 1093,
                "number": "307",
                "name": "Sodium, Na",
                "rank": 5800,
                "unitName": "mg"
            },
            "amount": 1.00000000
        },
        {
            "type": "FoodNutrient",
            "id": 2648153,
            "nutrient": {
                "id": 1095,
                "number": "309",
                "name": "Zinc, Zn",
                "rank": 5900,
                "unitName": "mg"
            },
            "amount": 0.12000000
        },
        {
            "type": "FoodNutrient",
            "id": 2648154,
            "nutrient": {
                "id": 1098,
                "number": "312",
                "name": "Copper, Cu",
                "rank": 6000,
                "unitName": "mg"
            },
            "amount": 0.11000000
        },
        {
            "type": "FoodNutrient",
            "id": 2648155,
            "nutrient": {
                "id": 1103,
                "number": "317",
                "name": "Selenium, Se",
                "rank": 6200,
                "unitName": "µg"
            },
            "amount": 0.10000000
        },
        {
            "type": "FoodNutrient",
            "id": 2648156,
            "nutrient": {
                "id": 1105,
                "number": "319",
                "name": "Retinol",
                "rank": 7430,
                "unitName": "µg"
            },
            "amount": 0E-8
        },
        {
            "type": "FoodNutrient",
            "id": 2648157,
            "nutrient": {
                "id": 1106,
                "number": "320",
                "name": "Vitamin A, RAE",
                "rank": 7420,
                "unitName": "µg"
            },
            "amount": 3.00000000
        },
        {
            "type": "FoodNutrient",
            "id": 2648158,
            "nutrient": {
                "id": 1107,
                "number": "321",
                "name": "Carotene, beta",
                "rank": 7440,
                "unitName": "µg"
            },
            "amount": 35.00000000
        },
        {
            "type": "FoodNutrient",
            "id": 2648159,
            "nutrient": {
                "id": 1108,
                "number": "322",
                "name": "Carotene, alpha",
                "rank": 7450,
                "unitName": "µg"
            },
            "amount": 0E-8
        },
        {
            "type": "FoodNutrient",
            "id": 2648160,
            "nutrient": {
                "id": 1109,
                "number": "323",
                "name": "Vitamin E (alpha-tocopherol)",
                "rank": 7905,
                "unitName": "mg"
            },
            "amount": 0.02000000
        },
        {
            "type": "FoodNutrient",
            "id": 2648161,
            "nutrient": {
                "id": 1114,
                "number": "328",
                "name": "Vitamin D (D2 + D3)",
                "rank": 8700,
                "unitName": "µg"
            },
            "amount": 0E-8
        },
        {
            "type": "FoodNutrient",
            "id": 2648162,
            "nutrient": {
                "id": 1120,
                "number": "334",
                "name": "Cryptoxanthin, beta",
                "rank": 7460,
                "unitName": "µg"
            },
            "amount": 0E-8
        },
        {
            "type": "FoodNutrient",
            "id": 2648163,
            "nutrient": {
                "id": 1122,
                "number": "337",
                "name": "Lycopene",
                "rank": 7530,
                "unitName": "µg"
            },
            "amount": 0E-8
        },
        {
            "type": "FoodNutrient",
            "id": 2648164,
            "nutrient": {
                "id": 1123,
                "number": "338",
                "name": "Lutein + zeaxanthin",
                "rank": 7560,
                "unitName": "µg"
            },
            "amount": 0E-8
        },
        {
            "type": "FoodNutrient",
            "id": 2648165,
            "nutrient": {
                "id": 1162,
                "number": "401",
                "name": "Vitamin C, total ascorbic acid",
                "rank": 6300,
                "unitName": "mg"
            },
            "amount": 47.80000000
        },
        {
            "type": "FoodNutrient",
            "id": 2648166,
            "nutrient": {
                "id": 1165,
                "number": "404",
                "name": "Thiamin",
                "rank": 6400,
                "unitName": "mg"
            },
            "amount": 0.07900000
        },
        {
            "type": "FoodNutrient",
            "id": 2648167,
            "nutrient": {
                "id": 1166,
                "number": "405",
                "name": "Riboflavin",
                "rank": 6500,
                "unitName": "mg"
            },
            "amount": 0.03200000
        },
        {
            "type": "FoodNutrient",
            "id": 2648168,
            "nutrient": {
                "id": 1167,
                "number": "406",
                "name": "Niacin",
                "rank": 6600,
                "unitName": "mg"
            },
            "amount": 0.50000000
        },
        {
            "type": "FoodNutrient",
            "id": 2648169,
            "nutrient": {
                "id": 1175,
                "number": "415",
                "name": "Vitamin B-6",
                "rank": 6800,
                "unitName": "mg"
            },
            "amount": 0.11200000
        },
        {
            "type": "FoodNutrient",
            "id": 2648170,
            "nutrient": {
                "id": 1177,
                "number": "417",
                "name": "Folate, total",
                "rank": 6900,
                "unitName": "µg"
            },
            "amount": 18.00000000
        },
        {
            "type": "FoodNutrient",
            "id": 2648171,
            "nutrient": {
                "id": 1178,
                "number": "418",
                "name": "Vitamin B-12",
                "rank": 7300,
                "unitName": "µg"
            },
            "amount": 0E-8
        },
        {
            "type": "FoodNutrient",
            "id": 2648172,
            "nutrient": {
                "id": 1180,
                "number": "421",
                "name": "Choline, total",
                "rank": 7220,
                "unitName": "mg"
            },
            "amount": 5.50000000
        },
        {
            "type": "FoodNutrient",
            "id": 2648173,
            "nutrient": {
                "id": 1185,
                "number": "430",
                "name": "Vitamin K (phylloquinone)",
                "rank": 8800,
                "unitName": "µg"
            },
            "amount": 0.70000000
        },
        {
            "type": "FoodNutrient",
            "id": 2648174,
            "nutrient": {
                "id": 1186,
                "number": "431",
                "name": "Folic acid",
                "rank": 7000,
                "unitName": "µg"
            },
            "amount": 0E-8
        },
        {
            "type": "FoodNutrient",
            "id": 2648175,
            "nutrient": {
                "id": 1187,
                "number": "432",
                "name": "Folate, food",
                "rank": 7100,
                "unitName": "µg"
            },
            "amount": 18.00000000
        },
        {
            "type": "FoodNutrient",
            "id": 2648176,
            "nutrient": {
                "id": 1190,
                "number": "435",
                "name": "Folate, DFE",
                "rank": 7200,
                "unitName": "µg"
            },
            "amount": 18.00000000
        },
        {
            "type": "FoodNutrient",
            "id": 2648177,
            "nutrient": {
                "id": 1242,
                "number": "573",
                "name": "Vitamin E, added",
                "rank": 7920,
                "unitName": "mg"
            },
            "amount": 0E-8
        },
        {
            "type": "FoodNutrient",
            "id": 2648178,
            "nutrient": {
                "id": 1246,
                "number": "578",
                "name": "Vitamin B-12, added",
                "rank": 7340,
                "unitName": "µg"
            },
            "amount": 0E-8
        },
        {
            "type": "FoodNutrient",
            "id": 2648179,
            "nutrient": {
                "id": 1253,
                "number": "601",
                "name": "Cholesterol",
                "rank": 15700,
                "unitName": "mg"
            },
            "amount": 0E-8
        },
        {
            "type": "FoodNutrient",
            "id": 2648180,
            "nutrient": {
                "id": 1258,
                "number": "606",
                "name": "Fatty acids, total saturated",
                "rank": 9700,
                "unitName": "g"
            },
            "amount": 0.00900000
        },
        {
            "type": "FoodNutrient",
            "id": 2648181,
            "nutrient": {
                "id": 1259,
                "number": "607",
                "name": "4:0",
                "rank": 9800,
                "unitName": "g"
            },
            "amount": 0E-8
        },
        {
            "type": "FoodNutrient",
            "id": 2648182,
            "nutrient": {
                "id": 1260,
                "number": "608",
                "name": "6:0",
                "rank": 9900,
                "unitName": "g"
            },
            "amount": 0E-8
        },
        {
            "type": "FoodNutrient",
            "id": 2648183,
            "nutrient": {
                "id": 1261,
                "number": "609",
                "name": "8:0",
                "rank": 10000,
                "unitName": "g"
            },
            "amount": 0E-8
        },
        {
            "type": "FoodNutrient",
            "id": 2648184,
            "nutrient": {
                "id": 1262,
                "number": "610",
                "name": "10:0",
                "rank": 10100,
                "unitName": "g"
            },
            "amount": 0E-8
        },
        {
            "type": "FoodNutrient",
            "id": 2648185,
            "nutrient": {
                "id": 1263,
                "number": "611",
                "name": "12:0",
                "rank": 10300,
                "unitName": "g"
            },
            "amount": 0E-8
        },
        {
            "type": "FoodNutrient",
            "id": 2648186,
            "nutrient": {
                "id": 1264,
                "number": "612",
                "name": "14:0",
                "rank": 10500,
                "unitName": "g"
            },
            "amount": 0E-8
        },
        {
            "type": "FoodNutrient",
            "id": 2648187,
            "nutrient": {
                "id": 1265,
                "number": "613",
                "name": "16:0",
                "rank": 10700,
                "unitName": "g"
            },
            "amount": 0.00500000
        },
        {
            "type": "FoodNutrient",
            "id": 2648188,
            "nutrient": {
                "id": 1266,
                "number": "614",
                "name": "18:0",
                "rank": 10900,
                "unitName": "g"
            },
            "amount": 0.00300000
        },
        {
            "type": "FoodNutrient",
            "id": 2648189,
            "nutrient": {
                "id": 1268,
                "number": "617",
                "name": "18:1",
                "rank": 12100,
                "unitName": "g"
            },
            "amount": 0.01200000
        },
        {
            "type": "FoodNutrient",
            "id": 2648190,
            "nutrient": {
                "id": 1269,
                "number": "618",
                "name": "18:2",
                "rank": 13100,
                "unitName": "g"
            },
            "amount": 0.02300000
        },
        {
            "type": "FoodNutrient",
            "id": 2648191,
            "nutrient": {
                "id": 1270,
                "number": "619",
                "name": "18:3",
                "rank": 13900,
                "unitName": "g"
            },
            "amount": 0.01700000
        },
        {
            "type": "FoodNutrient",
            "id": 2648192,
            "nutrient": {
                "id": 1271,
                "number": "620",
                "name": "20:4",
                "rank": 14700,
                "unitName": "g"
            },
            "amount": 0E-8
        },
        {
            "type": "FoodNutrient",
            "id": 2648193,
            "nutrient": {
                "id": 1272,
                "number": "621",
                "name": "22:6 n-3 (DHA)",
                "rank": 15300,
                "unitName": "g"
            },
            "amount": 0E-8
        },
        {
            "type": "FoodNutrient",
            "id": 2648194,
            "nutrient": {
                "id": 1275,
                "number": "626",
                "name": "16:1",
                "rank": 11700,
                "unitName": "g"
            },
            "amount": 0.00100000
        },
        {
            "type": "FoodNutrient",
            "id": 2648195,
            "nutrient": {
                "id": 1276,
                "number": "627",
                "name": "18:4",
                "rank": 14250,
                "unitName": "g"
            },
            "amount": 0E-8
        },
        {
            "type": "FoodNutrient",
            "id": 2648196,
            "nutrient": {
                "id": 1277,
                "number": "628",
                "name": "20:1",
                "rank": 12400,
                "unitName": "g"
            },
            "amount": 0E-8
        },
        {
            "type": "FoodNutrient",
            "id": 2648197,
            "nutrient": {
                "id": 1278,
                "number": "629",
                "name": "20:5 n-3 (EPA)",
                "rank": 15000,
                "unitName": "g"
            },
            "amount": 0E-8
        },
        {
            "type": "FoodNutrient",
            "id": 2648198,
            "nutrient": {
                "id": 1279,
                "number": "630",
                "name": "22:1",
                "rank": 12500,
                "unitName": "g"
            },
            "amount": 0E-8
        },
        {
            "type": "FoodNutrient",
            "id": 2648199,
            "nutrient": {
                "id": 1280,
                "number": "631",
                "name": "22:5 n-3 (DPA)",
                "rank": 15200,
                "unitName": "g"
            },
            "amount": 0E-8
        },
        {
            "type": "FoodNutrient",
            "id": 2648200,
            "nutrient": {
                "id": 1292,
                "number": "645",
                "name": "Fatty acids, total monounsaturated",
                "rank": 11400,
                "unitName": "g"
            },
            "amount": 0.01300000
        },
        {
            "type": "FoodNutrient",
            "id": 2648201,
            "nutrient": {
                "id": 1293,
                "number": "646",
                "name": "Fatty acids, total polyunsaturated",
                "rank": 12900,
                "unitName": "g"
            },
            "amount": 0.04000000
        }
    ],
    "foodComponents": [],
    "foodAttributes": [],
    "tableAliasName": "survey_fndds_food",
    "foodCode": "63141010",
    "startDate": "1/1/2013",
    "endDate": "12/31/2014",
    "wweiaFoodCategory": {
        "wweiaFoodCategoryCode": 6018,
        "wweiaFoodCategoryDescription": "Other fruits and fruit salads"
    },
    "fdcId": 341607,
    "dataType": "Survey (FNDDS)",
    "foodPortions": [
        {
            "id": 149580,
            "measureUnit": {
                "id": 9999,
                "name": "undetermined",
                "abbreviation": "undetermined"
            },
            "modifier": "60813",
            "gramWeight": 905.00000000,
            "portionDescription": "1 fruit",
            "sequenceNumber": 1
        },
        {
            "id": 149581,
            "measureUnit": {
                "id": 9999,
                "name": "undetermined",
                "abbreviation": "undetermined"
            },
            "modifier": "62309",
            "gramWeight": 56.00000000,
            "portionDescription": "1 thin slice (3-1/2\" dia x 1/2\" thick)",
            "sequenceNumber": 3
        },
        {
            "id": 149582,
            "measureUnit": {
                "id": 9999,
                "name": "undetermined",
                "abbreviation": "undetermined"
            },
            "modifier": "61961",
            "gramWeight": 84.00000000,
            "portionDescription": "1 slice (3-1/2\" dia x 3/4\" thick)",
            "sequenceNumber": 4
        },
        {
            "id": 149583,
            "measureUnit": {
                "id": 9999,
                "name": "undetermined",
                "abbreviation": "undetermined"
            },
            "modifier": "40016",
            "gramWeight": 15.00000000,
            "portionDescription": "1 oz yields",
            "sequenceNumber": 5
        },
        {
            "id": 149584,
            "measureUnit": {
                "id": 9999,
                "name": "undetermined",
                "abbreviation": "undetermined"
            },
            "modifier": "51000",
            "gramWeight": 12.00000000,
            "portionDescription": "1 cubic inch",
            "sequenceNumber": 6
        },
        {
            "id": 149585,
            "measureUnit": {
                "id": 9999,
                "name": "undetermined",
                "abbreviation": "undetermined"
            },
            "modifier": "90000",
            "gramWeight": 82.00000000,
            "portionDescription": "Quantity not specified",
            "sequenceNumber": 7
        },
        {
            "id": 149586,
            "measureUnit": {
                "id": 9999,
                "name": "undetermined",
                "abbreviation": "undetermined"
            },
            "modifier": "10039",
            "gramWeight": 165.00000000,
            "portionDescription": "1 cup, chunks",
            "sequenceNumber": 8
        },
        {
            "id": 149587,
            "measureUnit": {
                "id": 9999,
                "name": "undetermined",
                "abbreviation": "undetermined"
            },
            "modifier": "64213",
            "gramWeight": 166.00000000,
            "portionDescription": "1 slice (4-2/3\" dia x 3/4\" thick)",
            "sequenceNumber": 9
        }
    ],
    "inputFoods": [
        {
            "id": 34595,
            "unit": "GM",
            "portionDescription": "NONE",
            "portionCode": "0",
            "srCode": 9266,
            "srDescription": "Pineapple, raw, all varieties",
            "foodDescription": "Pineapple, raw, all varieties",
            "gramWeight": 100.00000000,
            "surveyFlag": 0,
            "amount": 100.00000000,
            "sequenceNumber": 1
        }
    ],
    "publicationDate": "4/1/2019",
    "changes": ""
}
